\relax 
\citation{b1}
\citation{b4}
\citation{b5}
\citation{b1}
\citation{b2}
\citation{b9}
\citation{b2}
\citation{b3}
\citation{b6}
\citation{b10}
\citation{b7}
\citation{b1}
\citation{b2}
\citation{b3}
\citation{b1}
\@writefile{lof}{\contentsline {figure}{\numberline {1}{\ignorespaces Activity Diagram.}}{2}\protected@file@percent }
\newlabel{activity}{{1}{2}}
\citation{b8}
\citation{b1}
\citation{b1}
\@writefile{lof}{\contentsline {figure}{\numberline {2}{\ignorespaces Slot Filling Approach to SQL Generation.}}{3}\protected@file@percent }
\newlabel{slotfill}{{2}{3}}
\@writefile{lof}{\contentsline {figure}{\numberline {3}{\ignorespaces Model Block Diagram}}{3}\protected@file@percent }
\newlabel{blockdiagram}{{3}{3}}
\newlabel{eqn1}{{1}{3}}
\newlabel{eqn2}{{2}{3}}
\newlabel{eqn3}{{3}{3}}
\newlabel{eqn4}{{4}{3}}
\citation{b2}
\citation{b3}
\@writefile{lof}{\contentsline {figure}{\numberline {4}{\ignorespaces Aggregation Prediction Module Block Diagram}}{4}\protected@file@percent }
\newlabel{aggpred}{{4}{4}}
\newlabel{eqn5}{{5}{4}}
\newlabel{eqn6}{{6}{4}}
\newlabel{eqn7}{{7}{4}}
\newlabel{eqn8}{{8}{4}}
\@writefile{lof}{\contentsline {figure}{\numberline {5}{\ignorespaces Selection Prediction Module Block Diagram}}{4}\protected@file@percent }
\newlabel{selpred}{{5}{4}}
\newlabel{eqn9}{{9}{4}}
\citation{b11}
\@writefile{lof}{\contentsline {figure}{\numberline {6}{\ignorespaces Prediction of Number of Conditions}}{5}\protected@file@percent }
\newlabel{numpred}{{6}{5}}
\newlabel{eqn10}{{10}{5}}
\newlabel{eqn11}{{11}{5}}
\newlabel{eqn12}{{12}{5}}
\newlabel{eqn13}{{13}{5}}
\@writefile{lof}{\contentsline {figure}{\numberline {7}{\ignorespaces Prediction of Columns coming in each condition}}{5}\protected@file@percent }
\newlabel{colpred}{{7}{5}}
\citation{b13}
\citation{b14}
\citation{b2}
\citation{b3}
\@writefile{lot}{\contentsline {table}{\numberline {I}{\ignorespaces Model HyperParameters}}{6}\protected@file@percent }
\newlabel{tab1}{{I}{6}}
\@writefile{lof}{\contentsline {figure}{\numberline {8}{\ignorespaces Loss versus Epoch curve}}{6}\protected@file@percent }
\newlabel{losscurve}{{8}{6}}
\citation{b6}
\citation{b12}
\bibcite{b1}{1}
\bibcite{b2}{2}
\bibcite{b3}{3}
\bibcite{b4}{4}
\bibcite{b5}{5}
\bibcite{b6}{6}
\bibcite{b7}{7}
\bibcite{b8}{8}
\bibcite{b9}{9}
\bibcite{b10}{10}
\bibcite{b11}{11}
\bibcite{b12}{12}
\bibcite{b13}{13}
\bibcite{b14}{14}
\@writefile{lot}{\contentsline {table}{\numberline {II}{\ignorespaces Logical Form Accuracy}}{7}\protected@file@percent }
\newlabel{tab2}{{II}{7}}
\@writefile{toc}{\contentsline {section}{References}{7}\protected@file@percent }
